<svg xmlns="http://www.w3.org/2000/svg" width="61.972" height="43.918" viewBox="0 0 61.972 43.918">
  <g id="Group_3839" data-name="Group 3839" transform="translate(-6.948 -10.118)">
    <g id="Group_3836" data-name="Group 3836" transform="translate(-532.214 -622.107)">
      <g id="グループ_3782" data-name="グループ 3782" transform="translate(539.162 632.225)">
        <g id="Group_3777" data-name="Group 3777">
          <path id="Path_1431" data-name="Path 1431" d="M4.481,0h33.61a4.5,4.5,0,0,1,4.481,4.481V26.888a4.5,4.5,0,0,1-4.481,4.481H4.481A4.5,4.5,0,0,1,0,26.888V4.481A4.5,4.5,0,0,1,4.481,0Z" fill="#fff"/>
          <path id="Path_1432" data-name="Path 1432" d="M4.481.56v.56h33.61a3.3,3.3,0,0,1,3.361,3.361V26.888a3.3,3.3,0,0,1-3.361,3.361H4.481A3.3,3.3,0,0,1,1.12,26.888V4.481A3.3,3.3,0,0,1,4.481,1.12V0A4.5,4.5,0,0,0,0,4.481H0V26.888H0A4.5,4.5,0,0,0,4.481,31.37h33.61a4.5,4.5,0,0,0,4.481-4.481V4.481A4.5,4.5,0,0,0,38.092,0H4.481Z" fill="#5e7116"/>
          <path id="Path_1433" data-name="Path 1433" d="M6.361,3H35.49a3.3,3.3,0,0,1,3.361,3.361V24.287a3.3,3.3,0,0,1-3.361,3.361H6.361A3.3,3.3,0,0,1,3,24.287V6.361A3.3,3.3,0,0,1,6.361,3Z" transform="translate(0.361 0.361)" fill="#e5f5a5"/>
          <path id="Path_1434" data-name="Path 1434" d="M6.361,3.56v.56H35.49a2.247,2.247,0,0,1,2.241,2.241V24.287a2.247,2.247,0,0,1-2.241,2.241H6.361A2.247,2.247,0,0,1,4.12,24.287V6.361A2.247,2.247,0,0,1,6.361,4.12V3A3.3,3.3,0,0,0,3,6.361V24.287a3.3,3.3,0,0,0,3.361,3.361H35.49a3.3,3.3,0,0,0,3.361-3.361V6.361A3.3,3.3,0,0,0,35.49,3H6.361Z" transform="translate(0.361 0.361)" fill="#5e7116"/>
          <path id="Path_1435" data-name="Path 1435" d="M10.241,8H19.2a2.247,2.247,0,0,1,2.241,2.241V19.2A2.247,2.247,0,0,1,19.2,21.444H10.241A2.247,2.247,0,0,1,8,19.2V10.241A2.247,2.247,0,0,1,10.241,8Z" transform="translate(0.963 0.963)" fill="#fff"/>
          <path id="Path_1436" data-name="Path 1436" d="M10.241,8.9v.9H19.2a.529.529,0,0,1,.56.56v8.963a.529.529,0,0,1-.56.56H10.241a.529.529,0,0,1-.56-.56V10.353a.529.529,0,0,1,.56-.56V8A2.247,2.247,0,0,0,8,10.241V19.2a2.247,2.247,0,0,0,2.241,2.241H19.2A2.247,2.247,0,0,0,21.444,19.2V10.241A2.247,2.247,0,0,0,19.2,8H10.241Z" transform="translate(0.963 0.963)" fill="#829f13"/>
          <path id="Path_1437" data-name="Path 1437" d="M13.12,12h2.241a1.058,1.058,0,0,1,1.12,1.12v2.241a1.058,1.058,0,0,1-1.12,1.12H13.12A1.058,1.058,0,0,1,12,15.361V13.12A1.058,1.058,0,0,1,13.12,12Z" transform="translate(1.444 1.444)" fill="#829f13"/>
        </g>
      </g>
    </g>
    <g id="Group_3837" data-name="Group 3837" transform="matrix(0.998, -0.07, 0.07, 0.998, 0.063, 17.59)">
      <g id="Group_3782" data-name="Group 3782" transform="translate(16.587 17.254)">
        <rect id="Rectangle_1508" data-name="Rectangle 1508" width="13.054" height="25.503" rx="3.18" transform="translate(0 12.187) rotate(-69.004)" fill="#fff"/>
        <g id="Group_3778" data-name="Group 3778" transform="translate(0.825 0.825)">
          <path id="Path_1444" data-name="Path 1444" d="M27.364,20.128,46.3,27.4a1.834,1.834,0,0,1,1.178,1.714,1.815,1.815,0,0,1-.122.657L44.55,37.08h0a1.83,1.83,0,0,1-2.37,1.055h0L23.242,30.868a1.834,1.834,0,0,1-1.178-1.714,1.815,1.815,0,0,1,.122-.657h0l2.807-7.314a1.834,1.834,0,0,1,2.371-1.055l.254-.663a2.542,2.542,0,0,0-3.288,1.464l-2.807,7.314h0a2.542,2.542,0,0,0,1.464,3.288L41.925,38.8h0a2.545,2.545,0,0,0,3.288-1.465h0l2.807-7.314a2.542,2.542,0,0,0-1.464-3.288L27.619,19.465Z" transform="translate(-21.354 -19.295)" fill="#5e7116"/>
        </g>
        <g id="グループ_3683" data-name="グループ 3683" transform="translate(4.244 5.11)">
          <g id="Group_3779" data-name="Group 3779" transform="translate(0 0)">
            <path id="パス_1392" data-name="パス 1392" d="M26.21,28.954l-.69-.264,1.351-3.52-.743-.124.2-.53,1.518.164Z" transform="translate(-25.52 -24.516)" fill="#829f13"/>
            <path id="パス_1393" data-name="パス 1393" d="M28.426,29.842c-1.573-.6-.959-2.205-.755-2.736a3.511,3.511,0,0,1,.687-1.2,1.644,1.644,0,0,1,2.753,1.057,3.488,3.488,0,0,1-.293,1.352C30.614,28.845,30,30.446,28.426,29.842Zm1.413-3.681c-.62-.238-1.062.124-1.479,1.21s-.33,1.651.29,1.889,1.063-.124,1.479-1.21S30.458,26.4,29.839,26.161Z" transform="translate(-25.854 -24.682)" fill="#829f13"/>
            <path id="パス_1394" data-name="パス 1394" d="M32.637,31.459c-1.574-.6-.959-2.206-.756-2.737a3.511,3.511,0,0,1,.687-1.2,1.645,1.645,0,0,1,2.754,1.057,3.5,3.5,0,0,1-.292,1.352C34.826,30.462,34.212,32.063,32.637,31.459Zm1.413-3.682c-.62-.238-1.063.125-1.48,1.21s-.33,1.651.291,1.888,1.062-.124,1.479-1.21S34.67,28.015,34.051,27.777Z" transform="translate(-26.609 -24.972)" fill="#829f13"/>
            <path id="パス_1395" data-name="パス 1395" d="M36.849,33.075c-1.574-.6-.959-2.205-.756-2.736a3.5,3.5,0,0,1,.687-1.2A1.644,1.644,0,0,1,39.535,30.2a3.488,3.488,0,0,1-.293,1.352C39.037,32.078,38.423,33.679,36.849,33.075Zm1.412-3.682c-.62-.237-1.062.125-1.479,1.21s-.33,1.651.29,1.889,1.063-.125,1.479-1.21S38.881,29.631,38.262,29.393Z" transform="translate(-27.364 -25.262)" fill="#829f13"/>
            <path id="パス_1396" data-name="パス 1396" d="M41.061,34.691c-1.574-.6-.959-2.205-.755-2.736a3.49,3.49,0,0,1,.687-1.2,1.644,1.644,0,0,1,2.753,1.057,3.5,3.5,0,0,1-.292,1.352C43.249,33.694,42.635,35.3,41.061,34.691Zm1.413-3.681c-.62-.238-1.063.124-1.479,1.21s-.33,1.651.29,1.889,1.062-.124,1.479-1.21S43.093,31.248,42.474,31.01Z" transform="translate(-28.12 -25.552)" fill="#829f13"/>
          </g>
        </g>
        <path id="パス_1428" data-name="パス 1428" d="M47.711,29.856c.886-.254,2.617.226,2.936,1.339s-.894,2.437-1.781,2.692a1.824,1.824,0,0,1-2.3-1.166l-.017-.053A2.4,2.4,0,0,1,47.711,29.856Z" transform="translate(-25.031 -20.352)" fill="#cbd992"/>
        <path id="長方形_1468" data-name="長方形 1468" d="M41.4,39.247l.8-1.987a3.216,3.216,0,0,1,4.187-1.776h0a3.216,3.216,0,0,1,1.775,4.186l-.2.5a1.607,1.607,0,0,1-2.093.888L41.4,39.247Z" transform="translate(-24.123 -21.331)" fill="#cbd992"/>
      </g>
      <g id="Group_3786" data-name="Group 3786" transform="translate(25.176 16.467)">
        <path id="Path_1445" data-name="Path 1445" d="M2.453,0H10.6a2.453,2.453,0,0,1,2.453,2.453v20.6A2.453,2.453,0,0,1,10.6,25.5H2.453A2.453,2.453,0,0,1,0,23.05V2.453A2.453,2.453,0,0,1,2.453,0Z" transform="translate(0 12.187) rotate(-69.004)" fill="#e5f5a5"/>
        <g id="Group_3778-2" data-name="Group 3778" transform="translate(0.825 0.825)">
          <path id="Path_1444-2" data-name="Path 1444" d="M27.364,20.128,46.3,27.4a1.834,1.834,0,0,1,1.178,1.714,1.815,1.815,0,0,1-.122.657L44.55,37.08h0a1.83,1.83,0,0,1-2.37,1.055h0L23.242,30.868a1.834,1.834,0,0,1-1.178-1.714,1.815,1.815,0,0,1,.122-.657h0l2.807-7.314a1.834,1.834,0,0,1,2.371-1.055l.254-.663a2.542,2.542,0,0,0-3.288,1.464l-2.807,7.314h0a2.542,2.542,0,0,0,1.464,3.288L41.925,38.8h0a2.545,2.545,0,0,0,3.288-1.465h0l2.807-7.314a2.542,2.542,0,0,0-1.464-3.288L27.619,19.465Z" transform="translate(-21.354 -19.295)" fill="#5e7116"/>
        </g>
        <g id="グループ_3683-2" data-name="グループ 3683" transform="translate(4.244 5.11)">
          <g id="Group_3780" data-name="Group 3780" transform="translate(0 0)">
            <path id="パス_1392-2" data-name="パス 1392" d="M26.21,28.954l-.69-.264,1.351-3.52-.743-.124.2-.53,1.518.164Z" transform="translate(-25.52 -24.516)" fill="#829f13"/>
            <path id="パス_1393-2" data-name="パス 1393" d="M28.426,29.842c-1.573-.6-.959-2.205-.755-2.736a3.511,3.511,0,0,1,.687-1.2,1.644,1.644,0,0,1,2.753,1.057,3.488,3.488,0,0,1-.293,1.352C30.614,28.845,30,30.446,28.426,29.842Zm1.413-3.681c-.62-.238-1.062.124-1.479,1.21s-.33,1.651.29,1.889,1.063-.124,1.479-1.21S30.458,26.4,29.839,26.161Z" transform="translate(-25.854 -24.682)" fill="#829f13"/>
            <path id="パス_1394-2" data-name="パス 1394" d="M32.637,31.459c-1.574-.6-.959-2.206-.756-2.737a3.511,3.511,0,0,1,.687-1.2,1.645,1.645,0,0,1,2.754,1.057,3.5,3.5,0,0,1-.292,1.352C34.826,30.462,34.212,32.063,32.637,31.459Zm1.413-3.682c-.62-.238-1.063.125-1.48,1.21s-.33,1.651.291,1.888,1.062-.124,1.479-1.21S34.67,28.015,34.051,27.777Z" transform="translate(-26.609 -24.972)" fill="#829f13"/>
            <path id="パス_1395-2" data-name="パス 1395" d="M36.849,33.075c-1.574-.6-.959-2.205-.756-2.736a3.5,3.5,0,0,1,.687-1.2A1.644,1.644,0,0,1,39.535,30.2a3.488,3.488,0,0,1-.293,1.352C39.037,32.078,38.423,33.679,36.849,33.075Zm1.412-3.682c-.62-.237-1.062.125-1.479,1.21s-.33,1.651.29,1.889,1.063-.125,1.479-1.21S38.881,29.631,38.262,29.393Z" transform="translate(-27.364 -25.262)" fill="#829f13"/>
          </g>
        </g>
        <path id="パス_1428-2" data-name="パス 1428" d="M47.711,29.856c.886-.254,2.617.226,2.936,1.339s-.894,2.437-1.781,2.692a1.824,1.824,0,0,1-2.3-1.166l-.017-.053A2.4,2.4,0,0,1,47.711,29.856Z" transform="translate(-25.031 -20.352)" fill="#cbd992"/>
        <path id="長方形_1468-2" data-name="長方形 1468" d="M41.4,39.247l.8-1.987a3.216,3.216,0,0,1,4.187-1.776h0a3.216,3.216,0,0,1,1.775,4.186l-.2.5a1.607,1.607,0,0,1-2.093.888L41.4,39.247Z" transform="translate(-24.123 -21.331)" fill="#cbd992"/>
      </g>
      <g id="Group_3833" data-name="Group 3833" transform="matrix(0.921, 0.391, -0.391, 0.921, 557.576, -1549.052)">
        <g id="Path_1382" data-name="Path 1382" transform="translate(0 0)" fill="#fff">
          <path d="M 161.9685668945312 1655.247314453125 L 144.033203125 1655.247314453125 C 143.3620452880859 1655.247314453125 142.8160095214844 1654.705810546875 142.8160095214844 1654.040161132812 L 142.8160095214844 1641.6494140625 C 142.8160095214844 1640.984252929688 143.3620452880859 1640.443115234375 144.033203125 1640.443115234375 L 161.9685668945312 1640.443115234375 C 162.6401672363281 1640.443115234375 163.1865539550781 1640.984252929688 163.1865539550781 1641.6494140625 L 163.1865539550781 1654.040161132812 C 163.1865539550781 1654.705810546875 162.6401672363281 1655.247314453125 161.9685668945312 1655.247314453125 Z" stroke="none"/>
          <path d="M 144.033203125 1640.818115234375 C 143.5684356689453 1640.818115234375 143.1910095214844 1641.190185546875 143.1910095214844 1641.6494140625 L 143.1910095214844 1654.040161132812 C 143.1910095214844 1654.49951171875 143.5684356689453 1654.872314453125 144.033203125 1654.872314453125 L 161.9685668945312 1654.872314453125 C 162.4341278076172 1654.872314453125 162.8115539550781 1654.49951171875 162.8115539550781 1654.040161132812 L 162.8115539550781 1641.6494140625 C 162.8115539550781 1641.190185546875 162.4341278076172 1640.818115234375 161.9685668945312 1640.818115234375 L 144.033203125 1640.818115234375 M 144.033203125 1640.068115234375 L 161.9685668945312 1640.068115234375 C 162.8469390869141 1640.068115234375 163.5615539550781 1640.777465820312 163.5615539550781 1641.6494140625 L 163.5615539550781 1654.040161132812 C 163.5615539550781 1654.91259765625 162.8469390869141 1655.622314453125 161.9685668945312 1655.622314453125 L 144.033203125 1655.622314453125 C 143.1552581787109 1655.622314453125 142.4410095214844 1654.91259765625 142.4410095214844 1654.040161132812 L 142.4410095214844 1641.6494140625 C 142.4410095214844 1640.777465820312 143.1552581787109 1640.068115234375 144.033203125 1640.068115234375 Z" stroke="none" fill="#5e7116"/>
        </g>
        <path id="Path_1383" data-name="Path 1383" d="M171.206,1664.2l-1.209.846,1.209.846Z" transform="translate(-26.195 -22.853)" fill="#829f13"/>
        <g id="Group_3677" data-name="Group 3677" transform="translate(143.996 1649.915)">
          <g id="Group_3673" data-name="Group 3673" transform="translate(0)">
            <rect id="Rectangle_1444" data-name="Rectangle 1444" width="0.681" height="1.431" fill="#829f13"/>
            <rect id="Rectangle_1445" data-name="Rectangle 1445" width="0.681" height="1.431" transform="translate(1.106)" fill="#829f13"/>
            <rect id="Rectangle_1446" data-name="Rectangle 1446" width="0.681" height="1.431" transform="translate(2.212)" fill="#829f13"/>
          </g>
          <g id="Group_3674" data-name="Group 3674" transform="translate(3.893)">
            <rect id="Rectangle_1447" data-name="Rectangle 1447" width="0.681" height="1.431" fill="#829f13"/>
            <rect id="Rectangle_1448" data-name="Rectangle 1448" width="0.681" height="1.431" transform="translate(1.106)" fill="#829f13"/>
            <rect id="Rectangle_1449" data-name="Rectangle 1449" width="0.681" height="1.431" transform="translate(2.212)" fill="#829f13"/>
          </g>
          <g id="Group_3675" data-name="Group 3675" transform="translate(7.786)">
            <rect id="Rectangle_1450" data-name="Rectangle 1450" width="0.681" height="1.431" fill="#829f13"/>
            <rect id="Rectangle_1451" data-name="Rectangle 1451" width="0.681" height="1.431" transform="translate(1.106)" fill="#829f13"/>
            <rect id="Rectangle_1452" data-name="Rectangle 1452" width="0.681" height="1.431" transform="translate(2.212)" fill="#829f13"/>
          </g>
          <g id="Group_3676" data-name="Group 3676" transform="translate(11.68)">
            <rect id="Rectangle_1453" data-name="Rectangle 1453" width="0.681" height="1.431" fill="#829f13"/>
            <rect id="Rectangle_1454" data-name="Rectangle 1454" width="0.681" height="1.431" transform="translate(1.106)" fill="#829f13"/>
            <rect id="Rectangle_1455" data-name="Rectangle 1455" width="0.681" height="1.431" transform="translate(2.212)" fill="#829f13"/>
          </g>
        </g>
        <g id="Group_3678" data-name="Group 3678" transform="translate(146.864 1652.973)">
          <rect id="Rectangle_1456" data-name="Rectangle 1456" width="0.681" height="1.083" transform="translate(0 0)" fill="#829f13"/>
          <rect id="Rectangle_1457" data-name="Rectangle 1457" width="0.681" height="1.083" transform="translate(1.113 0)" fill="#829f13"/>
          <rect id="Rectangle_1458" data-name="Rectangle 1458" width="0.681" height="1.083" transform="translate(2.226 0)" fill="#829f13"/>
          <rect id="Rectangle_1459" data-name="Rectangle 1459" width="0.681" height="1.083" transform="translate(3.339 0)" fill="#829f13"/>
          <rect id="Rectangle_1460" data-name="Rectangle 1460" width="0.681" height="1.083" transform="translate(4.452 0)" fill="#829f13"/>
          <rect id="Rectangle_1461" data-name="Rectangle 1461" width="0.681" height="1.083" transform="translate(5.565 0)" fill="#829f13"/>
        </g>
        <rect id="Rectangle_1462" data-name="Rectangle 1462" width="3.742" height="3.743" transform="translate(145.829 1644.873)" fill="#829f13"/>
        <g id="Group_3679" data-name="Group 3679" transform="translate(156.347 1640.818)">
          <path id="Path_1384" data-name="Path 1384" d="M726.836,1641.649v5.563H726.8a6.429,6.429,0,0,1-6.433-6.395h5.622A.837.837,0,0,1,726.836,1641.649Z" transform="translate(-720.371 -1640.818)" fill="#e5f5a5"/>
          <path id="Path_1385" data-name="Path 1385" d="M818.778,1641.649v3.418h-.032a4.286,4.286,0,0,1-4.288-4.25h3.477A.837.837,0,0,1,818.778,1641.649Z" transform="translate(-812.313 -1640.818)" fill="#5e7116"/>
          <path id="Path_1386" data-name="Path 1386" d="M910.721,1641.649v1.273h-.032a2.143,2.143,0,0,1-2.144-2.105h1.333A.837.837,0,0,1,910.721,1641.649Z" transform="translate(-904.256 -1640.818)" fill="#e5f5a5"/>
        </g>
      </g>
    </g>
  </g>
</svg>
