<svg xmlns="http://www.w3.org/2000/svg" width="62.801" height="44.8" viewBox="0 0 62.801 44.8">
  <g id="Group_3696" data-name="Group 3696" transform="translate(-782.754 -691.147)">
    <g id="Group_3680" data-name="Group 3680" transform="translate(640.063 -935.671)">
      <path id="Path_1382" data-name="Path 1382" d="M185.492,1642.61v26.714a1.806,1.806,0,0,1-1.817,1.794H145.007a1.806,1.806,0,0,1-1.816-1.794V1642.61a1.8,1.8,0,0,1,1.816-1.792h38.668A1.8,1.8,0,0,1,185.492,1642.61Z" transform="translate(0 0)" fill="#fff" stroke="#5e7116" stroke-width="1"/>
      <path id="Path_1383" data-name="Path 1383" d="M172.6,1664.2,170,1666.028l2.606,1.824Z" transform="translate(-25.489 -22.237)" fill="#829f13"/>
      <g id="Group_3677" data-name="Group 3677" transform="translate(144.927 1660.43)">
        <g id="Group_3673" data-name="Group 3673" transform="translate(0)">
          <rect id="Rectangle_1444" data-name="Rectangle 1444" width="1.467" height="3.085" fill="#829f13"/>
          <rect id="Rectangle_1445" data-name="Rectangle 1445" width="1.467" height="3.085" transform="translate(2.385)" fill="#829f13"/>
          <rect id="Rectangle_1446" data-name="Rectangle 1446" width="1.467" height="3.085" transform="translate(4.769)" fill="#829f13"/>
        </g>
        <g id="Group_3674" data-name="Group 3674" transform="translate(8.394)">
          <rect id="Rectangle_1447" data-name="Rectangle 1447" width="1.467" height="3.085" fill="#829f13"/>
          <rect id="Rectangle_1448" data-name="Rectangle 1448" width="1.467" height="3.085" transform="translate(2.385)" fill="#829f13"/>
          <rect id="Rectangle_1449" data-name="Rectangle 1449" width="1.467" height="3.085" transform="translate(4.769)" fill="#829f13"/>
        </g>
        <g id="Group_3675" data-name="Group 3675" transform="translate(16.787)">
          <rect id="Rectangle_1450" data-name="Rectangle 1450" width="1.467" height="3.085" fill="#829f13"/>
          <rect id="Rectangle_1451" data-name="Rectangle 1451" width="1.467" height="3.085" transform="translate(2.385)" fill="#829f13"/>
          <rect id="Rectangle_1452" data-name="Rectangle 1452" width="1.467" height="3.085" transform="translate(4.769)" fill="#829f13"/>
        </g>
        <g id="Group_3676" data-name="Group 3676" transform="translate(25.181)">
          <rect id="Rectangle_1453" data-name="Rectangle 1453" width="1.467" height="3.085" fill="#829f13"/>
          <rect id="Rectangle_1454" data-name="Rectangle 1454" width="1.467" height="3.085" transform="translate(2.385)" fill="#829f13"/>
          <rect id="Rectangle_1455" data-name="Rectangle 1455" width="1.467" height="3.085" transform="translate(4.769)" fill="#829f13"/>
        </g>
      </g>
      <g id="Group_3678" data-name="Group 3678" transform="translate(151.109 1667.023)">
        <rect id="Rectangle_1456" data-name="Rectangle 1456" width="1.467" height="2.335" transform="translate(0 0)" fill="#829f13"/>
        <rect id="Rectangle_1457" data-name="Rectangle 1457" width="1.467" height="2.335" transform="translate(2.4 0)" fill="#829f13"/>
        <rect id="Rectangle_1458" data-name="Rectangle 1458" width="1.467" height="2.335" transform="translate(4.799 0)" fill="#829f13"/>
        <rect id="Rectangle_1459" data-name="Rectangle 1459" width="1.467" height="2.335" transform="translate(7.199 0)" fill="#829f13"/>
        <rect id="Rectangle_1460" data-name="Rectangle 1460" width="1.467" height="2.335" transform="translate(9.599 0)" fill="#829f13"/>
        <rect id="Rectangle_1461" data-name="Rectangle 1461" width="1.467" height="2.335" transform="translate(11.999 0)" fill="#829f13"/>
      </g>
      <rect id="Rectangle_1462" data-name="Rectangle 1462" width="8.068" height="8.07" transform="translate(148.879 1649.561)" fill="#829f13"/>
      <g id="Group_3679" data-name="Group 3679" transform="translate(171.554 1640.818)">
        <path id="Path_1384" data-name="Path 1384" d="M734.309,1642.61V1654.6c-.024,0-.045,0-.069,0a13.861,13.861,0,0,1-13.869-13.786h12.12A1.8,1.8,0,0,1,734.309,1642.61Z" transform="translate(-720.371 -1640.818)" fill="#e5f5a5"/>
        <path id="Path_1385" data-name="Path 1385" d="M823.772,1642.61v7.369H823.7a9.24,9.24,0,0,1-9.245-9.163h7.5A1.8,1.8,0,0,1,823.772,1642.61Z" transform="translate(-809.834 -1640.818)" fill="#5e7116"/>
        <path id="Path_1386" data-name="Path 1386" d="M913.236,1642.61v2.745c-.023,0-.045,0-.069,0a4.62,4.62,0,0,1-4.622-4.539h2.873A1.8,1.8,0,0,1,913.236,1642.61Z" transform="translate(-899.298 -1640.818)" fill="#e5f5a5"/>
      </g>
    </g>
    <g id="Group_3681" data-name="Group 3681" transform="translate(659.063 -948.671)">
      <g id="Path_1382-2" data-name="Path 1382" transform="translate(0 0)" fill="#fff">
        <path d="M 183.6745758056641 1671.6181640625 L 145.0067596435547 1671.6181640625 C 143.7298583984375 1671.6181640625 142.6910095214844 1670.589111328125 142.6910095214844 1669.32421875 L 142.6910095214844 1642.6103515625 C 142.6910095214844 1641.346435546875 143.7298583984375 1640.318115234375 145.0067596435547 1640.318115234375 L 183.6745758056641 1640.318115234375 C 184.9524383544922 1640.318115234375 185.9920501708984 1641.346435546875 185.9920501708984 1642.6103515625 L 185.9920501708984 1669.32421875 C 185.9920501708984 1670.589111328125 184.9524383544922 1671.6181640625 183.6745758056641 1671.6181640625 Z" stroke="none"/>
        <path d="M 145.0067596435547 1640.818115234375 C 144.0047302246094 1640.818115234375 143.1910095214844 1641.6201171875 143.1910095214844 1642.6103515625 L 143.1910095214844 1669.32421875 C 143.1910095214844 1670.314453125 144.0047302246094 1671.1181640625 145.0067596435547 1671.1181640625 L 183.6745758056641 1671.1181640625 C 184.6783142089844 1671.1181640625 185.4920501708984 1670.314453125 185.4920501708984 1669.32421875 L 185.4920501708984 1642.6103515625 C 185.4920501708984 1641.6201171875 184.6783142089844 1640.818115234375 183.6745758056641 1640.818115234375 L 145.0067596435547 1640.818115234375 M 145.0067596435547 1639.818115234375 L 183.6745758056641 1639.818115234375 C 185.2281341552734 1639.818115234375 186.4920501708984 1641.070678710938 186.4920501708984 1642.6103515625 L 186.4920501708984 1669.32421875 C 186.4920501708984 1670.86474609375 185.2281341552734 1672.1181640625 183.6745758056641 1672.1181640625 L 145.0067596435547 1672.1181640625 C 143.4541473388672 1672.1181640625 142.1910095214844 1670.86474609375 142.1910095214844 1669.32421875 L 142.1910095214844 1642.6103515625 C 142.1910095214844 1641.070678710938 143.4541473388672 1639.818115234375 145.0067596435547 1639.818115234375 Z" stroke="none" fill="#5e7116"/>
      </g>
      <path id="Path_1383-2" data-name="Path 1383" d="M172.6,1664.2,170,1666.028l2.606,1.824Z" transform="translate(-25.489 -22.237)" fill="#829f13"/>
      <g id="Group_3677-2" data-name="Group 3677" transform="translate(144.927 1660.43)">
        <g id="Group_3673-2" data-name="Group 3673" transform="translate(0)">
          <rect id="Rectangle_1444-2" data-name="Rectangle 1444" width="1.467" height="3.085" fill="#829f13"/>
          <rect id="Rectangle_1445-2" data-name="Rectangle 1445" width="1.467" height="3.085" transform="translate(2.385)" fill="#829f13"/>
          <rect id="Rectangle_1446-2" data-name="Rectangle 1446" width="1.467" height="3.085" transform="translate(4.769)" fill="#829f13"/>
        </g>
        <g id="Group_3674-2" data-name="Group 3674" transform="translate(8.394)">
          <rect id="Rectangle_1447-2" data-name="Rectangle 1447" width="1.467" height="3.085" fill="#829f13"/>
          <rect id="Rectangle_1448-2" data-name="Rectangle 1448" width="1.467" height="3.085" transform="translate(2.385)" fill="#829f13"/>
          <rect id="Rectangle_1449-2" data-name="Rectangle 1449" width="1.467" height="3.085" transform="translate(4.769)" fill="#829f13"/>
        </g>
        <g id="Group_3675-2" data-name="Group 3675" transform="translate(16.787)">
          <rect id="Rectangle_1450-2" data-name="Rectangle 1450" width="1.467" height="3.085" fill="#829f13"/>
          <rect id="Rectangle_1451-2" data-name="Rectangle 1451" width="1.467" height="3.085" transform="translate(2.385)" fill="#829f13"/>
          <rect id="Rectangle_1452-2" data-name="Rectangle 1452" width="1.467" height="3.085" transform="translate(4.769)" fill="#829f13"/>
        </g>
        <g id="Group_3676-2" data-name="Group 3676" transform="translate(25.181)">
          <rect id="Rectangle_1453-2" data-name="Rectangle 1453" width="1.467" height="3.085" fill="#829f13"/>
          <rect id="Rectangle_1454-2" data-name="Rectangle 1454" width="1.467" height="3.085" transform="translate(2.385)" fill="#829f13"/>
          <rect id="Rectangle_1455-2" data-name="Rectangle 1455" width="1.467" height="3.085" transform="translate(4.769)" fill="#829f13"/>
        </g>
      </g>
      <g id="Group_3678-2" data-name="Group 3678" transform="translate(151.109 1667.023)">
        <rect id="Rectangle_1456-2" data-name="Rectangle 1456" width="1.467" height="2.335" transform="translate(0 0)" fill="#829f13"/>
        <rect id="Rectangle_1457-2" data-name="Rectangle 1457" width="1.467" height="2.335" transform="translate(2.4 0)" fill="#829f13"/>
        <rect id="Rectangle_1458-2" data-name="Rectangle 1458" width="1.467" height="2.335" transform="translate(4.799 0)" fill="#829f13"/>
        <rect id="Rectangle_1459-2" data-name="Rectangle 1459" width="1.467" height="2.335" transform="translate(7.199 0)" fill="#829f13"/>
        <rect id="Rectangle_1460-2" data-name="Rectangle 1460" width="1.467" height="2.335" transform="translate(9.599 0)" fill="#829f13"/>
        <rect id="Rectangle_1461-2" data-name="Rectangle 1461" width="1.467" height="2.335" transform="translate(11.999 0)" fill="#829f13"/>
      </g>
      <rect id="Rectangle_1462-2" data-name="Rectangle 1462" width="8.068" height="8.07" transform="translate(148.879 1649.561)" fill="#829f13"/>
      <g id="Group_3679-2" data-name="Group 3679" transform="translate(171.554 1640.818)">
        <path id="Path_1384-2" data-name="Path 1384" d="M734.309,1642.61V1654.6c-.024,0-.045,0-.069,0a13.861,13.861,0,0,1-13.869-13.786h12.12A1.8,1.8,0,0,1,734.309,1642.61Z" transform="translate(-720.371 -1640.818)" fill="#e5f5a5"/>
        <path id="Path_1385-2" data-name="Path 1385" d="M823.772,1642.61v7.369H823.7a9.24,9.24,0,0,1-9.245-9.163h7.5A1.8,1.8,0,0,1,823.772,1642.61Z" transform="translate(-809.834 -1640.818)" fill="#5e7116"/>
        <path id="Path_1386-2" data-name="Path 1386" d="M913.236,1642.61v2.745c-.023,0-.045,0-.069,0a4.62,4.62,0,0,1-4.622-4.539h2.873A1.8,1.8,0,0,1,913.236,1642.61Z" transform="translate(-899.298 -1640.818)" fill="#e5f5a5"/>
      </g>
    </g>
  </g>
</svg>
