<svg xmlns="http://www.w3.org/2000/svg" width="157" height="91" viewBox="0 0 157 91">
  <g id="Group_2598" data-name="Group 2598" transform="translate(-190 -367)">
    <g id="Group_2082" data-name="Group 2082" transform="translate(149 -127)">
      <g id="Rectangle_994" data-name="Rectangle 994" transform="translate(55 505)" fill="#f7f7f7" stroke="#c3c3c3" stroke-linecap="round" stroke-linejoin="round" stroke-width="2">
        <rect width="80.489" height="53.049" rx="1" stroke="none"/>
        <rect x="-1" y="-1" width="82.489" height="55.049" rx="2" fill="none"/>
      </g>
      <g id="Group_2081" data-name="Group 2081" transform="translate(64.173 512.317)">
        <g id="bread" transform="translate(0)">
          <path id="Path_1016" data-name="Path 1016" d="M36.149,70.368c-.014-.16-.421-3.914-7.053-3.914s-7.038,3.753-7.053,3.912l0,.039c0,2.54,2.377,2.54,3.951,2.54H32.2c1.573,0,3.951,0,3.951-2.54ZM32.2,72.1H25.992c-2.134,0-3.093-.242-3.1-1.669.03-.221.373-2.056,3.321-2.808l-.522,1.709a.423.423,0,1,0,.81.247l.655-2.144a13.172,13.172,0,0,1,1.817-.131l-.619,2.028a.423.423,0,1,0,.81.247l.684-2.24c0-.006,0-.012,0-.018a11.532,11.532,0,0,1,1.717.2l-.551,1.806a.423.423,0,1,0,.81.247l.563-1.845c2.6.811,2.894,2.5,2.919,2.7C35.294,71.856,34.335,72.1,32.2,72.1Z" transform="translate(-22.041 -61.528)" fill="#999"/>
          <path id="Path_1017" data-name="Path 1017" d="M54.186,34.97h.783c.94-1.142-.94-2.285,0-3.427h-.783C53.245,32.686,55.126,33.828,54.186,34.97Z" transform="translate(-49.417 -31.543)" fill="#999"/>
          <path id="Path_1018" data-name="Path 1018" d="M67.612,34.97H68.4c.94-1.142-.94-2.285,0-3.427h-.783C66.671,32.686,68.552,33.828,67.612,34.97Z" transform="translate(-60.949 -31.543)" fill="#999"/>
          <path id="Path_1019" data-name="Path 1019" d="M81.04,34.97h.784c.94-1.142-.94-2.285,0-3.427H81.04C80.1,32.686,81.98,33.828,81.04,34.97Z" transform="translate(-72.482 -31.543)" fill="#999"/>
        </g>
      </g>
    </g>
    <circle id="Ellipse_54" data-name="Ellipse 54" cx="14.5" cy="14.5" r="14.5" transform="translate(190 367)" fill="#c3ed12"/>
    <text id="_1" data-name="1" transform="translate(200 387)" fill="#fff" font-size="14" font-family="NotoSansCJKjp-Bold, Noto Sans CJK JP" font-weight="700" letter-spacing="0.02em"><tspan x="0" y="0">1</tspan></text>
    <g id="Group_2593" data-name="Group 2593" transform="translate(0 20)">
      <g id="Rectangle_1176" data-name="Rectangle 1176" transform="translate(289 356)" fill="#f7f7f7" stroke="#c3c3c3" stroke-width="1">
        <rect width="56" height="19" rx="3" stroke="none"/>
        <rect x="0.5" y="0.5" width="55" height="18" rx="2.5" fill="none"/>
      </g>
      <rect id="Rectangle_1177" data-name="Rectangle 1177" width="27" height="3" rx="1" transform="translate(310 359)" fill="#c3c3c3"/>
      <g id="Group_2596" data-name="Group 2596" transform="translate(292.173 359.317)">
        <g id="bread-2" data-name="bread" transform="translate(0)">
          <path id="Path_1016-2" data-name="Path 1016" d="M36.149,70.368c-.014-.16-.421-3.914-7.053-3.914s-7.038,3.753-7.053,3.912l0,.039c0,2.54,2.377,2.54,3.951,2.54H32.2c1.573,0,3.951,0,3.951-2.54ZM32.2,72.1H25.992c-2.134,0-3.093-.242-3.1-1.669.03-.221.373-2.056,3.321-2.808l-.522,1.709a.423.423,0,1,0,.81.247l.655-2.144a13.172,13.172,0,0,1,1.817-.131l-.619,2.028a.423.423,0,1,0,.81.247l.684-2.24c0-.006,0-.012,0-.018a11.532,11.532,0,0,1,1.717.2l-.551,1.806a.423.423,0,1,0,.81.247l.563-1.845c2.6.811,2.894,2.5,2.919,2.7C35.294,71.856,34.335,72.1,32.2,72.1Z" transform="translate(-22.041 -61.528)" fill="#999"/>
          <path id="Path_1017-2" data-name="Path 1017" d="M54.186,34.97h.783c.94-1.142-.94-2.285,0-3.427h-.783C53.245,32.686,55.126,33.828,54.186,34.97Z" transform="translate(-49.417 -31.543)" fill="#999"/>
          <path id="Path_1018-2" data-name="Path 1018" d="M67.612,34.97H68.4c.94-1.142-.94-2.285,0-3.427h-.783C66.671,32.686,68.552,33.828,67.612,34.97Z" transform="translate(-60.949 -31.543)" fill="#999"/>
          <path id="Path_1019-2" data-name="Path 1019" d="M81.04,34.97h.784c.94-1.142-.94-2.285,0-3.427H81.04C80.1,32.686,81.98,33.828,81.04,34.97Z" transform="translate(-72.482 -31.543)" fill="#999"/>
        </g>
      </g>
    </g>
    <g id="Group_2594" data-name="Group 2594" transform="translate(0 41)">
      <g id="Rectangle_1176-2" data-name="Rectangle 1176" transform="translate(289 356)" fill="#f7f7f7" stroke="#c3c3c3" stroke-width="1">
        <rect width="56" height="19" rx="3" stroke="none"/>
        <rect x="0.5" y="0.5" width="55" height="18" rx="2.5" fill="none"/>
      </g>
      <rect id="Rectangle_1177-2" data-name="Rectangle 1177" width="27" height="3" rx="1" transform="translate(310 359)" fill="#c3c3c3"/>
      <g id="burger" transform="translate(233.604 343.176)">
        <path id="Path_1020" data-name="Path 1020" d="M44.075,38.938a6.727,6.727,0,0,0-13.455,0,.481.481,0,0,0,.02.132v3.444a2.624,2.624,0,0,0,2.621,2.621h8.172a2.624,2.624,0,0,0,2.62-2.621V39.071A.484.484,0,0,0,44.075,38.938Zm-12.46,2.875V40.7a2.126,2.126,0,0,1,.54.222,3,3,0,0,0,2.926,0,2.031,2.031,0,0,1,2.019,0,3,3,0,0,0,2.926,0,2.031,2.031,0,0,1,2.02,0,2.842,2.842,0,0,0,1.034.352v.536ZM42.5,40.062a3,3,0,0,0-2.926,0,2.03,2.03,0,0,1-2.02,0,3,3,0,0,0-2.926,0,2.03,2.03,0,0,1-2.019,0,2.847,2.847,0,0,0-.994-.348v-.288H43.079v.866A2.052,2.052,0,0,1,42.5,40.062Zm-5.152-6.876a5.761,5.761,0,0,1,5.732,5.265H31.615A5.761,5.761,0,0,1,37.347,33.185Zm4.086,10.975H33.261a1.648,1.648,0,0,1-1.622-1.374H43.055A1.648,1.648,0,0,1,41.434,44.161Z" transform="translate(-30.62 -32.211)" fill="#999"/>
        <rect id="Rectangle_985" data-name="Rectangle 985" width="0.686" height="0.975" transform="matrix(-0.479, -0.878, 0.878, -0.479, 3.145, 4.701)" fill="#999"/>
        <rect id="Rectangle_986" data-name="Rectangle 986" width="0.974" height="0.686" transform="translate(8.074 5.052) rotate(-166.743)" fill="#999"/>
        <rect id="Rectangle_987" data-name="Rectangle 987" width="0.974" height="0.686" transform="translate(6.322 2.917) rotate(-166.743)" fill="#999"/>
        <rect id="Rectangle_988" data-name="Rectangle 988" width="0.974" height="0.686" transform="translate(10.046 3.993) rotate(-131.814)" fill="#999"/>
      </g>
    </g>
    <g id="Group_2595" data-name="Group 2595" transform="translate(0 62)">
      <g id="Rectangle_1176-3" data-name="Rectangle 1176" transform="translate(289 356)" fill="#f7f7f7" stroke="#c3c3c3" stroke-width="1">
        <rect width="56" height="19" rx="3" stroke="none"/>
        <rect x="0.5" y="0.5" width="55" height="18" rx="2.5" fill="none"/>
      </g>
      <rect id="Rectangle_1177-3" data-name="Rectangle 1177" width="27" height="3" rx="1" transform="translate(310 359)" fill="#c3c3c3"/>
      <g id="muffin" transform="translate(291.948 358.099)">
        <path id="Path_1025" data-name="Path 1025" d="M43.261,37.547a3.016,3.016,0,0,0-2.177-2.894,3.012,3.012,0,0,0-4.553-2.314,3.005,3.005,0,0,0-3.1,0,3.012,3.012,0,0,0-4.564,2.52,3.012,3.012,0,0,0,.459,5.564l1.195,5.839h8.923l1.172-5.726A3.016,3.016,0,0,0,43.261,37.547Zm-4.7,7.641h-7.17l-.949-4.636a3,3,0,0,0,1.382-.459l.377,4.1,1.07-.1-.331-3.6a2.982,2.982,0,0,0,1.5-.065v3.716h1.074V40.218a2.992,2.992,0,0,0,1.389.343c.033,0,.066,0,.1,0L36.679,44.1l1.07.1.357-3.892a2.989,2.989,0,0,0,.471-.256,3,3,0,0,0,.953.42Zm1.683-5.7a1.932,1.932,0,0,1-1.308-.511l-.363-.332-.363.332a1.929,1.929,0,0,1-2.616,0l-.363-.332-.363.332a1.929,1.929,0,0,1-2.616,0l-.363-.332-.363.332a1.938,1.938,0,1,1-1.938-3.261l.407-.14-.048-.428a2.039,2.039,0,0,1-.014-.226,1.942,1.942,0,0,1,1.939-1.94,1.917,1.917,0,0,1,1.215.429l.337.271.337-.271a1.935,1.935,0,0,1,2.43,0l.337.271.337-.271a1.918,1.918,0,0,1,1.215-.429,1.942,1.942,0,0,1,1.94,1.94c0,.034,0,.068-.005.1l-.037.539.505.062a1.939,1.939,0,0,1-.238,3.863Z" transform="translate(-27.209 -31.908)" fill="#999"/>
        <rect id="Rectangle_989" data-name="Rectangle 989" width="1.224" height="1.074" transform="translate(4.679 4.723) rotate(-133.023)" fill="#999"/>
        <rect id="Rectangle_990" data-name="Rectangle 990" width="1.224" height="1.074" transform="translate(8.599 5.708) rotate(-179.049)" fill="#999"/>
        <rect id="Rectangle_991" data-name="Rectangle 991" width="1.074" height="1.225" transform="translate(11.126 4.022) rotate(-157.785)" fill="#999"/>
      </g>
    </g>
    <g id="Group_2597" data-name="Group 2597" transform="translate(0 82)">
      <g id="Rectangle_1176-4" data-name="Rectangle 1176" transform="translate(289 356)" fill="#f7f7f7" stroke="#c3c3c3" stroke-width="1">
        <rect width="56" height="19" rx="3" stroke="none"/>
        <rect x="0.5" y="0.5" width="55" height="18" rx="2.5" fill="none"/>
      </g>
      <rect id="Rectangle_1177-4" data-name="Rectangle 1177" width="27" height="3" rx="1" transform="translate(310 359)" fill="#c3c3c3"/>
    </g>
    <g id="burger-2" data-name="burger" transform="translate(292.604 400.176)">
      <path id="Path_1020-2" data-name="Path 1020" d="M44.075,38.938a6.727,6.727,0,0,0-13.455,0,.481.481,0,0,0,.02.132v3.444a2.624,2.624,0,0,0,2.621,2.621h8.172a2.624,2.624,0,0,0,2.62-2.621V39.071A.484.484,0,0,0,44.075,38.938Zm-12.46,2.875V40.7a2.126,2.126,0,0,1,.54.222,3,3,0,0,0,2.926,0,2.031,2.031,0,0,1,2.019,0,3,3,0,0,0,2.926,0,2.031,2.031,0,0,1,2.02,0,2.842,2.842,0,0,0,1.034.352v.536ZM42.5,40.062a3,3,0,0,0-2.926,0,2.03,2.03,0,0,1-2.02,0,3,3,0,0,0-2.926,0,2.03,2.03,0,0,1-2.019,0,2.847,2.847,0,0,0-.994-.348v-.288H43.079v.866A2.052,2.052,0,0,1,42.5,40.062Zm-5.152-6.876a5.761,5.761,0,0,1,5.732,5.265H31.615A5.761,5.761,0,0,1,37.347,33.185Zm4.086,10.975H33.261a1.648,1.648,0,0,1-1.622-1.374H43.055A1.648,1.648,0,0,1,41.434,44.161Z" transform="translate(-30.62 -32.211)" fill="#999"/>
      <rect id="Rectangle_985-2" data-name="Rectangle 985" width="0.686" height="0.975" transform="matrix(-0.479, -0.878, 0.878, -0.479, 3.145, 4.701)" fill="#999"/>
      <rect id="Rectangle_986-2" data-name="Rectangle 986" width="0.974" height="0.686" transform="translate(8.074 5.052) rotate(-166.743)" fill="#999"/>
      <rect id="Rectangle_987-2" data-name="Rectangle 987" width="0.974" height="0.686" transform="translate(6.322 2.917) rotate(-166.743)" fill="#999"/>
      <rect id="Rectangle_988-2" data-name="Rectangle 988" width="0.974" height="0.686" transform="translate(10.046 3.993) rotate(-131.814)" fill="#999"/>
    </g>
    <g id="muffin-2" data-name="muffin" transform="translate(251.948 384.099)">
      <path id="Path_1025-2" data-name="Path 1025" d="M43.261,37.016a2.785,2.785,0,0,0-2.177-2.621,2.918,2.918,0,0,0-3-2.487,3.262,3.262,0,0,0-1.551.391,3.275,3.275,0,0,0-3.1,0,3.261,3.261,0,0,0-1.552-.391,2.893,2.893,0,0,0-3.013,2.673,2.715,2.715,0,0,0-1.655,2.435,2.78,2.78,0,0,0,2.114,2.6l1.195,5.289h8.923l1.172-5.187A2.843,2.843,0,0,0,43.261,37.016Zm-4.7,6.921h-7.17l-.949-4.2a3.215,3.215,0,0,0,1.382-.416l.377,3.715,1.07-.089-.331-3.263a3.282,3.282,0,0,0,1.5-.059v3.366h1.074V39.435a3.244,3.244,0,0,0,1.389.311c.033,0,.066,0,.1,0l-.325,3.21,1.07.089.357-3.525a3.1,3.1,0,0,0,.471-.232,3.165,3.165,0,0,0,.953.38Zm1.683-5.165a2.047,2.047,0,0,1-1.308-.463l-.363-.3-.363.3a2.079,2.079,0,0,1-2.616,0l-.363-.3-.363.3a2.079,2.079,0,0,1-2.616,0l-.363-.3-.363.3a2.047,2.047,0,0,1-1.308.463,1.857,1.857,0,0,1-1.939-1.757,1.779,1.779,0,0,1,1.309-1.66L30,35.23l-.048-.387a1.675,1.675,0,0,1-.014-.2,1.857,1.857,0,0,1,1.939-1.757,2.045,2.045,0,0,1,1.215.389l.337.246.337-.246a2.093,2.093,0,0,1,2.43,0l.337.246.337-.246a2.045,2.045,0,0,1,1.215-.389,1.857,1.857,0,0,1,1.94,1.757c0,.031,0,.062-.005.092l-.037.488.505.056a1.827,1.827,0,0,1,1.7,1.742A1.857,1.857,0,0,1,40.247,38.773Z" transform="translate(-29.209 -31.908)" fill="#999"/>
      <rect id="Rectangle_989-2" data-name="Rectangle 989" width="1.224" height="1.074" transform="translate(2.679 4.394) rotate(-133.023)" fill="#999"/>
      <rect id="Rectangle_990-2" data-name="Rectangle 990" width="1.224" height="1.074" transform="translate(6.599 5.238) rotate(-179.049)" fill="#999"/>
      <rect id="Rectangle_991-2" data-name="Rectangle 991" width="1.074" height="1.225" transform="matrix(-0.926, -0.378, 0.378, -0.926, 9.126, 3.76)" fill="#999"/>
    </g>
    <g id="cheese" transform="translate(268.927 385.592)">
      <path id="Path_1021" data-name="Path 1021" d="M43.1,42.646a.474.474,0,0,0-.009-.084,3.533,3.533,0,0,0-3.528-3.478h-.074L29.4,42.259v2.479l.4.066a1.082,1.082,0,0,1,0,2.136l-.4.066v.964a1.69,1.69,0,0,0,1.688,1.688H41.406a1.69,1.69,0,0,0,1.688-1.688V42.718A.478.478,0,0,0,43.1,42.646Zm-3.465-2.6a2.569,2.569,0,0,1,2.453,2.116H32.915Zm1.769,8.647H31.092a.725.725,0,0,1-.724-.724v-.188a2.047,2.047,0,0,0,0-3.82v-.835H42.131v4.843A.725.725,0,0,1,41.406,48.695Z" transform="translate(-29.404 -39.083)" fill="#999"/>
      <path id="Path_1022" data-name="Path 1022" d="M50.8,67.849a1.386,1.386,0,1,0,1.386,1.386A1.387,1.387,0,0,0,50.8,67.849Zm0,1.807a.422.422,0,1,1,.422-.422A.422.422,0,0,1,50.8,69.656Z" transform="translate(-46.2 -63.228)" fill="#999"/>
      <path id="Path_1023" data-name="Path 1023" d="M69.222,79.683a1.305,1.305,0,1,0,1.305,1.305A1.307,1.307,0,0,0,69.222,79.683Zm0,1.647a.341.341,0,1,1,.341-.341A.342.342,0,0,1,69.222,81.33Z" transform="translate(-61.73 -73.161)" fill="#999"/>
      <path id="Path_1024" data-name="Path 1024" d="M87.363,68.516a1.278,1.278,0,1,0,1.278,1.278A1.28,1.28,0,0,0,87.363,68.516Zm0,1.593a.315.315,0,1,1,.314-.315A.315.315,0,0,1,87.363,70.109Z" transform="translate(-76.979 -63.788)" fill="#999"/>
    </g>
    <rect id="Rectangle_1178" data-name="Rectangle 1178" width="64" height="13" transform="translate(283 445)" fill="#fff"/>
  </g>
</svg>
