<svg xmlns="http://www.w3.org/2000/svg" width="15.905" height="20.622" viewBox="0 0 15.905 20.622">
  <g id="Group_3620" data-name="Group 3620" transform="translate(-448.5 -212.575)">
    <path id="Path_1117" data-name="Path 1117" d="M19.058,9.591a.339.339,0,1,0-.479.479l3.38,3.38a.335.335,0,0,0,.239.1h.014a.332.332,0,0,0,.269-.143l3.351-3.351a.339.339,0,1,0-.479-.479l-2.8,2.8V.339a.339.339,0,1,0-.677,0V12.408Z" transform="translate(434.24 213.075)" fill="#b8b8b8" stroke="#b8b8b8" stroke-width="1"/>
    <path id="Path_1118" data-name="Path 1118" d="M17.324,16a.339.339,0,1,0,0,.677h4.4V29.889H8.177V16.677h4.4a.339.339,0,0,0,0-.677H7.5V30.566H22.4V16Z" transform="translate(441.5 202.132)" fill="#b8b8b8" stroke="#b8b8b8" stroke-width="1"/>
  </g>
</svg>
