<svg id="_562_ex_f" data-name="562_ex_f" xmlns="http://www.w3.org/2000/svg" width="24.364" height="26.223" viewBox="0 0 24.364 26.223">
  <g id="Rectangle">
    <rect id="rect" width="24.364" height="26.223" fill="none"/>
  </g>
  <g id="icon_data" transform="translate(3.553 2.185)">
    <line id="Line_4" data-name="Line 4" x2="17.765" transform="translate(0 4.371)" fill="none" stroke="#ddd" stroke-linecap="round" stroke-linejoin="round" stroke-width="2"/>
    <path id="Path_1073" data-name="Path 1073" d="M24.636,8.371H15.5L17.023,4h6.091Z" transform="translate(-11.186 -4)" fill="none" stroke="#ddd" stroke-linecap="round" stroke-linejoin="round" stroke-width="2"/>
    <path id="Path_1074" data-name="Path 1074" d="M24.72,18V32.751H10V18" transform="translate(-8.477 -10.352)" fill="none" stroke="#ddd" stroke-linecap="round" stroke-linejoin="round" stroke-width="2"/>
    <line id="Line_5" data-name="Line 5" y2="9.834" transform="translate(6.599 7.648)" fill="none" stroke="#ddd" stroke-linecap="round" stroke-linejoin="round" stroke-width="2"/>
    <line id="Line_6" data-name="Line 6" y2="9.834" transform="translate(11.167 7.648)" fill="none" stroke="#ddd" stroke-linecap="round" stroke-linejoin="round" stroke-width="2"/>
  </g>
</svg>
